{
  "title": "CourseExams",
  "model": "CourseExams",
  "searchExpression": "indexof(course/name, '${text}') ge 0 or indexof(course/displayCode, '${text}') ge 0 or indexof(course/department/abbreviation, '${text}') ge 0 or indexof(course/department/name, '${text}') ge 0 or indexof(completedByUser/name, '${text}') ge 0 )",
  "columns": [
    {
      "name": "id",
      "property": "id",
      "formatter": "ActionLinkFormatter",
      "actions": [{
        "title": "Exams.Preview",
        "href": "#/exams/${id}/"
      }]
    },
    {
      "name": "course/displayCode",
      "property": "displayCode",
      "title": "Exams.DisplayCode"
    },
    {
      "name": "course/name",
      "property": "title",
      "title": "Exams.CourseName"
    },
    {
      "name": "year/alternateName",
      "property": "year",
      "title": "Exams.Year"
    },
    {
      "name": "examPeriod/name",
      "property": "examPeriod",
      "title": "Exams.Period"
    },
    {
      "name": "numberOfGradedStudents",
      "property": "numberOfGradedStudents",
      "title": "Exams.NumberOfGradedStudents"
    },
    {
      "name": "status/alternateName",
      "property": "status",
      "title": "Exams.Status",
      "formatter": "TranslationFormatter",
      "formatString": "ExamStatus.${value.toLowerCase()}"
    },
    {
      "name": "dateCompleted",
      "property": "dateCompleted",
      "title": "Exams.DateCompleted",
      "formatter": "DateTimeFormatter",
      "formatString": "shortDate"
    },
    {
      "name": "completedByUser/name",
      "property": "completedByUser",
      "title": "Exams.CompletedByUser"
    }
  ],
  "defaults":{
    "filter": "(course/department eq ${currentDepartment})"
  },
  "criteria": [
    {
      "name": "courseName",
      "filter": "(indexof(course/name, '${value}') ge 0)",
      "type": "text"
    },
    {
      "name": "displayCode",
      "filter": "(course/displayCode eq '${value}')",
      "type": "text"
    },
    {
      "name": "status",
      "filter": "(status/alternateName eq '${value}')",
      "type": "text"
    },
    {
      "name": "yearId",
      "filter": "(year/id eq '${value}')",
      "type": "text"
    },
    {
      "name": "examPeriod",
      "filter": "(examPeriod/name eq '${value}')",
      "type": "text"
    },
    {
      "name": "dateCompleted",
      "filter": "(dateCompleted eq '${value}')",
      "type": "text"
    },
    {
      "name": "pendingExams",
      "filter": "( (status/alternateName eq 'open') or (status/alternateName eq 'inprogress') )",
      "type": "text"
    },
    {
      "name": "currentYear",
      "filter": "(year eq '${currentYear}')",
      "type": "text"
    }
  ],
  "searches": [
    {
      "name": "AdvancedSearch.PreDefinedLists.pendingExams",
      "filter": {
          "pendingExams": true,
          "currentYear" : true
      }
    },
    {
      "name": "AdvancedSearch.PreDefinedLists.currentExams",
      "filter": {
          "status": "inprogress",
          "currentYear" : true
      }
    }
  ]
}
