{
  "model": "courseExamInstructors",
  "title": "instructor exams",
  "searchExpression": "indexof(courseExam/course/name, '${text}') ge 0 or indexof(courseExam/course/displayCode, '${text}') ge 0 or indexof(courseExam/examPeriod/name, '${text}') ge 0 )",
  "columns": [

    {
      "name":"courseExam/id",
      "property": "id",
      "formatter": "ActionLinkFormatter",
      "actions" : [
        {
          "title": "Labels.PreviewLink",
          "href": "#/exams/${id}/preview/general"
        }
      ]

    },
    {
      "name": "courseExam/course/displayCode",
      "property": "displayCode",
      "title": "Classes.DisplayCode"
    },
    {
      "name": "courseExam/course/name",
      "property": "title",
      "title": "Exams.CourseName"
    },
    {
      "name": "courseExam/examPeriod/name",
      "property": "examPeriod",
      "title": "Exams.Period"
    },
    {
      "name": "courseExam/year/alternateName",
      "property": "year",
      "title": "Exams.Year"
    },
    {
      "name": "courseExam/numberOfGradedStudents",
      "property": "numberOfGradedStudents",
      "title": "Exams.NumberOfGradedStudents"
    },
    {
      "name": "courseExam/status/name",
      "property": "status",
      "title": "Exams.Status",
      "formatter": "TranslationFormatter",
      "formatString": "ExamStatus.${value.toLowerCase()}"
    },
    {
      "name": "courseExam/dateCompleted",
      "property": "dateCompleted",
      "title": "Exams.DateCompleted",
      "formatter": "DateTimeFormatter",
      "formatString": "shortDate"
    }
  ],
  "criteria": [
    {
      "name": "courseTitle",
      "filter": "(indexof(courseExam/course/name, '${value}') ge 0)",
      "type": "text"
    },
    {
      "name": "displayCode",
      "filter": "(courseExam/course/displayCode eq '${value}')",
      "type": "text"
    },
    {
      "name": "status",
      "filter": "(courseExam/status/alternateName eq '${value}')",
      "type": "text"
    },
    {
      "name": "academicYear",
      "filter": "(courseExam/year/id eq '${value}')",
      "type": "text"
    },
    {
      "name": "examPeriod",
      "filter": "(courseExam/examPeriod/name eq '${value}')",
      "type": "text"
    }
  ]
}
